{
  "data": [
    {
      "id": 1,
      "url": "https://example.com",
      "title": "Example Website",
      "status": "completed",
      "html_version": "HTML5",
      "internal_links": 15,
      "external_links": 8,
      "h1_count": 1,
      "h2_count": 3,
      "h3_count": 5,
      "h4_count": 2,
      "h5_count": 0,
      "h6_count": 0,
      "broken_links": 0,
      "has_login_form": false,
      "performance_score": 85,
      "accessibility_score": 92,
      "seo_score": 78,
      "created_at": "2024-01-01T10:00:00Z",
      "updated_at": "2024-01-01T10:30:00Z"
    },
    {
      "id": 2,
      "url": "https://google.com",
      "title": "Google",
      "status": "completed",
      "html_version": "HTML5",
      "internal_links": 25,
      "external_links": 12,
      "h1_count": 1,
      "h2_count": 2,
      "h3_count": 4,
      "h4_count": 1,
      "h5_count": 0,
      "h6_count": 0,
      "broken_links": 1,
      "has_login_form": true,
      "performance_score": 95,
      "accessibility_score": 88,
      "seo_score": 90,
      "created_at": "2024-01-02T09:00:00Z",
      "updated_at": "2024-01-02T09:45:00Z"
    },
    {
      "id": 3,
      "url": "https://test-site.com",
      "title": "Test Site",
      "status": "analyzing",
      "html_version": null,
      "internal_links": null,
      "external_links": null,
      "h1_count": null,
      "h2_count": null,
      "h3_count": null,
      "h4_count": null,
      "h5_count": null,
      "h6_count": null,
      "broken_links": null,
      "has_login_form": null,
      "performance_score": null,
      "accessibility_score": null,
      "seo_score": null,
      "created_at": "2024-01-03T08:00:00Z",
      "updated_at": "2024-01-03T08:00:00Z"
    },
    {
      "id": 4,
      "url": "https://broken-site.com",
      "title": "Broken Site",
      "status": "failed",
      "html_version": null,
      "internal_links": null,
      "external_links": null,
      "h1_count": null,
      "h2_count": null,
      "h3_count": null,
      "h4_count": null,
      "h5_count": null,
      "h6_count": null,
      "broken_links": null,
      "has_login_form": null,
      "performance_score": null,
      "accessibility_score": null,
      "seo_score": null,
      "created_at": "2024-01-04T07:00:00Z",
      "updated_at": "2024-01-04T07:30:00Z"
    },
    {
      "id": 5,
      "url": "https://pending-site.com",
      "title": "Pending Site",
      "status": "pending",
      "html_version": null,
      "internal_links": null,
      "external_links": null,
      "h1_count": null,
      "h2_count": null,
      "h3_count": null,
      "h4_count": null,
      "h5_count": null,
      "h6_count": null,
      "broken_links": null,
      "has_login_form": null,
      "performance_score": null,
      "accessibility_score": null,
      "seo_score": null,
      "created_at": "2024-01-05T06:00:00Z",
      "updated_at": "2024-01-05T06:00:00Z"
    },
    {
      "id": 6,
      "url": "https://another-site.com",
      "title": "Another Site",
      "status": "completed",
      "html_version": "HTML5",
      "internal_links": 20,
      "external_links": 5,
      "h1_count": 2,
      "h2_count": 4,
      "h3_count": 6,
      "h4_count": 3,
      "h5_count": 1,
      "h6_count": 0,
      "broken_links": 2,
      "has_login_form": false,
      "performance_score": 75,
      "accessibility_score": 85,
      "seo_score": 82,
      "created_at": "2024-01-06T05:00:00Z",
      "updated_at": "2024-01-06T05:30:00Z"
    },
    {
      "id": 7,
      "url": "https://news-site.com",
      "title": "News Site",
      "status": "completed",
      "html_version": "HTML5",
      "internal_links": 50,
      "external_links": 30,
      "h1_count": 1,
      "h2_count": 8,
      "h3_count": 12,
      "h4_count": 5,
      "h5_count": 2,
      "h6_count": 1,
      "broken_links": 3,
      "has_login_form": true,
      "performance_score": 70,
      "accessibility_score": 80,
      "seo_score": 88,
      "created_at": "2024-01-07T04:00:00Z",
      "updated_at": "2024-01-07T04:45:00Z"
    },
    {
      "id": 8,
      "url": "https://blog-site.com",
      "title": "Blog Site",
      "status": "completed",
      "html_version": "HTML5",
      "internal_links": 35,
      "external_links": 15,
      "h1_count": 1,
      "h2_count": 6,
      "h3_count": 10,
      "h4_count": 4,
      "h5_count": 1,
      "h6_count": 0,
      "broken_links": 1,
      "has_login_form": false,
      "performance_score": 80,
      "accessibility_score": 90,
      "seo_score": 85,
      "created_at": "2024-01-08T03:00:00Z",
      "updated_at": "2024-01-08T03:30:00Z"
    },
    {
      "id": 9,
      "url": "https://shop-site.com",
      "title": "Shop Site",
      "status": "failed",
      "html_version": null,
      "internal_links": null,
      "external_links": null,
      "h1_count": null,
      "h2_count": null,
      "h3_count": null,
      "h4_count": null,
      "h5_count": null,
      "h6_count": null,
      "broken_links": null,
      "has_login_form": null,
      "performance_score": null,
      "accessibility_score": null,
      "seo_score": null,
      "created_at": "2024-01-09T02:00:00Z",
      "updated_at": "2024-01-09T02:15:00Z"
    },
    {
      "id": 10,
      "url": "https://portfolio-site.com",
      "title": "Portfolio Site",
      "status": "pending",
      "html_version": null,
      "internal_links": null,
      "external_links": null,
      "h1_count": null,
      "h2_count": null,
      "h3_count": null,
      "h4_count": null,
      "h5_count": null,
      "h6_count": null,
      "broken_links": null,
      "has_login_form": null,
      "performance_score": null,
      "accessibility_score": null,
      "seo_score": null,
      "created_at": "2024-01-10T01:00:00Z",
      "updated_at": "2024-01-10T01:00:00Z"
    }
  ],
  "pagination": {
    "page": 1,
    "limit": 10,
    "total": 25,
    "total_pages": 3
  }
}
