{
  "data": [
    {
      "id": 3,
      "url": "https://page2-url1.com",
      "title": "Page 2 URL 1",
      "status": "analyzing",
      "html_version": null,
      "internal_links": null,
      "external_links": null,
      "performance_score": null,
      "accessibility_score": null,
      "seo_score": null,
      "created_at": "2024-01-03T08:00:00Z"
    },
    {
      "id": 4,
      "url": "https://page2-url2.com",
      "title": "Page 2 URL 2",
      "status": "failed",
      "html_version": null,
      "internal_links": null,
      "external_links": null,
      "performance_score": null,
      "accessibility_score": null,
      "seo_score": null,
      "created_at": "2024-01-04T07:00:00Z"
    }
  ],
  "pagination": {
    "page": 2,
    "limit": 2,
    "total": 4,
    "total_pages": 2
  }
}
